"","X2","X2.1","pvalue","pfdr"
"CCAGIC",0.089775688,0.089663941,0.224886325347006,0.406602575642732
"CCADIC",0.089675069,0.089716735,0.379501169005177,0.406602575642732
"CCAUIC",0.089827428,0.08834348,0.32600392971986,0.406602575642732
"CCUAVG",0.089378005,0.089265973,0.390794648764165,0.406602575642732
"CCUABM",0.092394798,0.0923689,0.398024377993557,0.406602575642732
"CCUBMA",0.091127229,0.091115353,0.398740144902002,0.406602575642732
"CCUMAX",0.083081403,0.083093106,0.398305952240279,0.406602575642732
"CCWAVG",0.083835925,0.08497209,0.393712203075083,0.406602575642732
"CCWABM",0.0872157,0.089855327,0.337282287888414,0.406602575642732
"CCWBMA",0.08624852,0.089329025,0.316720875040262,0.406602575642732
"CCWMAX",0.08023045,0.081769059,0.374861542582967,0.406602575642732
"CCZAVG",0.085736432,0.086067207,0.137761244527824,0.406602575642732
"CCZABM",0.08737856,0.087695856,0.105561922101589,0.406602575642732
"CCZBMA",0.08655251,0.086880077,0.0973802210933605,0.406602575642732
"CCZMAX",0.080851313,0.081040234,0.272783724017616,0.406602575642732
"CCRAVG",0.087663697,0.086748084,0.35600372787327,0.406602575642732
"CCRABM",0.091333056,0.089914645,0.288618042658874,0.406602575642732
"CCRBMA",0.090431168,0.088667155,0.244996838720925,0.406602575642732
"CCRMAX",0.08199357,0.081271661,0.372750159858912,0.406602575642732
"CCXRAVG",0.086887537,0.086850517,0.398798462445711,0.406602575642732
"CCXRABM",0.091335878,0.090730581,0.316186546795367,0.406602575642732
"CCXRBMA",0.090669155,0.089900892,0.273039225330292,0.406602575642732
"CCXRMAX",0.081881833,0.081693993,0.388893309491813,0.406602575642732
"CCNAVG",0.087417932,0.087733572,0.148256340862059,0.406602575642732
"CCNABM",0.089716496,0.089999544,0.100191693503226,0.406602575642732
"CCNBMA",0.088860451,0.089149408,0.0929486503976496,0.406602575642732
"CCNMAX",0.082160445,0.082299905,0.288897309906198,0.406602575642732
"CCXNAVG",0.086520368,0.086641592,0.346998282487542,0.406602575642732
"CCXNABM",0.090376158,0.09054775,0.197626676682648,0.406602575642732
"CCXNBMA",0.089767369,0.089951561,0.17311372362886,0.406602575642732
"CCXNMAX",0.082485511,0.082527521,0.376278710055341,0.406602575642732
"CCLAVG",0.086438303,0.086785776,0.119452711715153,0.406602575642732
"CCLABM",0.088283787,0.088613426,0.0875222841717656,0.406602575642732
"CCLBMA",0.087442477,0.087778235,0.0831837411735578,0.406602575642732
"CCLMAX",0.08178853,0.081978311,0.262630887123824,0.406602575642732
"CCXLAVG",0.085956691,0.086123643,0.308759800108012,0.406602575642732
"CCXLABM",0.08940008,0.089609956,0.176871252837995,0.406602575642732
"CCXLBMA",0.088840641,0.089064559,0.154335853448265,0.406602575642732
"CCXLMAX",0.082289982,0.08236595,0.349006892652776,0.406602575642732
"CCSAVG",0.086771032,0.086838652,0.382295277894483,0.406602575642732
"CCSABM",0.088644077,0.088680431,0.392361009268312,0.406602575642732
"CCSBMA",0.087799201,0.087852551,0.385524329748656,0.406602575642732
"CCSMAX",0.081894046,0.0820145,0.367130446426046,0.406602575642732
"CCZGIC",0.089721695,0.089612116,0.225666787182946,0.406602575642732
"CCZDIC",0.089398966,0.089423704,0.391680078062977,0.406602575642732
"CCZUIC",0.089711556,0.088068802,0.316345049785208,0.406602575642732
"CCWGIC",0.090220344,0.090220725,0.398930828932492,0.406602575642732
"CCWDIC",0.08886626,0.088998647,0.163615899021672,0.406602575642732
"CCWUIC",0.089745886,0.088687698,0.370782401643254,0.406602575642732
"CCUGIC",0.087734027,0.088130896,0.227474300297128,0.406602575642732
"CCUDIC",0.089444505,0.089894566,0.228694239859228,0.406602575642732
"CCUUIC",0.087758049,0.089497722,0.296057067772715,0.406602575642732
"CCUI",0.089536573,0.089536573,NA,NA
