"","X3","X3.1","pvalue","pfdr"
"MFAGIC",0.628488699,0.635844453,0,0
"MFADIC",0.528785832,0.537450491,0,0
"MFAUIC",0.551021213,0.551021213,0.398934852484436,0.414579356503433
"MFUAVG",0.450811051,0.448869183,2.96057459979839e-38,4.90345168091609e-38
"MFUABM",0.412730139,0.412303411,1.12422162407447e-08,1.56799331778807e-08
"MFUBMA",0.405521329,0.404631525,1.91898842552702e-36,2.99136431038035e-36
"MFUMAX",0.087574779,0.087514764,0.260629910516806,0.297699958771948
"MFWAVG",0.431340184,0.551437187,5.15887737457397e-185,1.30200238501153e-184
"MFWABM",0.404979784,0.542478256,0,0
"MFWBMA",0.40010656,0.536966979,0,0
"MFWMAX",0.086181836,0.089286848,0.125174907186376,0.154285350718091
"MFZAVG",0.349377767,0.351533581,5.72785613644536e-37,9.1992840979274e-37
"MFZABM",0.387377168,0.393877099,0,0
"MFZBMA",0.381161689,0.387772112,0,0
"MFZMAX",0.084487317,0.084801883,0.263998076646822,0.297699958771948
"MFRAVG",0.461463124,0.409545295,1.35120316316222e-313,5.50875135751133e-313
"MFRABM",0.488125619,0.4229953,0,0
"MFRBMA",0.480052195,0.414572168,0,0
"MFRMAX",0.088695866,0.093341634,0.0144482220242288,0.0186769699337592
"MFXRAVG",0.484008126,0.451659008,8.94527155128548e-194,2.37049696109065e-193
"MFXRABM",0.513345085,0.485368625,0,0
"MFXRBMA",0.505965448,0.477722905,0,0
"MFXRMAX",0.089162502,0.088390333,0.185386864718636,0.223306905229266
"MFNAVG",0.368676305,0.376822389,1.61385580240644e-163,3.71888510989311e-163
"MFNABM",0.438556156,0.441940032,2.50514125721558e-75,4.91749950490466e-75
"MFNBMA",0.434772937,0.437441041,2.39437576619516e-53,4.37592812442564e-53
"MFNMAX",0.085867459,0.086001906,0.0635358465135107,0.0801761872670493
"MFXNAVG",0.404615999,0.418190099,4.23407458487998e-260,1.40253720624149e-259
"MFXNABM",0.504864147,0.50575996,1.32148558368439e-09,1.89293880906143e-09
"MFXNBMA",0.50172225,0.502139186,0.00414703397265109,0.00549482001376269
"MFXNMAX",0.087937567,0.087971171,0.390269118845041,0.413685265975743
"MFLAVG",0.34181464,0.348739761,6.83528146876096e-95,1.44907967137732e-94
"MFLABM",0.395842266,0.399712291,4.6107274156895e-50,7.88285654940463e-50
"MFLBMA",0.393944259,0.396893249,8.99886675134105e-33,1.36268553663164e-32
"MFLMAX",0.116830881,0.084455462,NA,NA
"MFXLAVG",0.376805101,0.390534241,8.94302089314675e-218,2.49463214387778e-217
"MFXLABM",0.49218541,0.493064509,3.91825984962461e-05,5.32481466743857e-05
"MFXLBMA",0.490976954,0.491196721,0.214841980575229,0.25303611045527
"MFXLMAX",0.087057113,0.08715244,0.359519419819762,0.396969359384321
"MFSAVG",0.343698604,0.346584481,2.20011259883735e-19,3.23905465939943e-19
"MFSABM",0.386889335,0.395408011,7.2133001978804e-181,1.73774959312573e-180
"MFSBMA",0.382923763,0.392020901,9.80288008309773e-219,2.88640358002322e-218
"MFSMAX",0.08422103,0.084396726,0.381874224982972,0.413047631104031
"MFZGIC",0.512740134,0.514571099,3.79593685225001e-237,1.18343913628971e-236
"MFZDIC",0.404642667,0.406105858,8.62738158561463e-147,1.9052134334899e-146
"MFZUIC",0.431737362,0.368880084,1.59039172404311e-69,3.01038433479589e-69
"MFWGIC",0.44812686,0.445377946,8.17012627987316e-281,2.88677795222185e-280
"MFWDIC",0.350127495,0.34753668,3.33272370929234e-284,1.26167397566067e-283
"MFWUIC",0.378627266,0.317102671,6.24922183841589e-76,1.27387983629247e-75
"MFUGIC",0.366780524,0.365172069,0,0
"MFUDIC",0.283082403,0.281808252,1.09863271750428e-313,4.8522945023188e-313
"MFUUIC",0.30813483,0.264140954,1.49571938659513e-52,2.64243758298472e-52
"MFUI",0.478700118,0.478700118,NA,NA
