"","X2","X2.1","pvalue","pfdr"
"BPAGIC",0.460658013,0.460825295,0.000481018621185896,0.000637349673071312
"BPADIC",0.454468337,0.455063716,2.01373526988496e-26,3.68027480358286e-26
"BPAUIC",0.448384579,0.428952521,3.01495781592672e-15,4.84220497709443e-15
"BPUAVG",0.324802307,0.327618706,2.85242216839397e-07,4.31938214071086e-07
"BPUABM",0.475427194,0.475804278,0.239678273295287,0.264644760096879
"BPUBMA",0.476351814,0.476357066,0.398898727044061,0.414541814379122
"BPUMAX",0.117040022,0.117923578,0.175395363450095,0.197786260911809
"BPWAVG",0.349174154,0.329746737,0.000227502653563441,0.000309170272791343
"BPWABM",0.462147389,0.526097808,8.76179656582602e-72,2.01902268690773e-71
"BPWBMA",0.471612644,0.522284232,8.79188210508519e-45,1.72581389470191e-44
"BPWMAX",0.113610251,0.116083747,0.31106527301184,0.33645835652301
"BPZAVG",0.289693735,0.297363267,1.18503143369866e-235,6.9785184428921e-235
"BPZABM",0.436345161,0.441566788,1.40637564181564e-314,7.45379090162287e-313
"BPZBMA",0.452595578,0.456959863,3.69352504382295e-274,3.91513654645233e-273
"BPZMAX",0.128936429,0.129233903,6.23279940866199e-05,8.69311496471277e-05
"BPRAVG",0.305740819,0.265743187,4.94904006225008e-54,1.04919649319702e-53
"BPRABM",0.500664027,0.395744992,2.70116342635714e-297,7.15808307984641e-296
"BPRBMA",0.505803231,0.409803228,5.08046054497912e-240,3.84663441262705e-239
"BPRMAX",0.128847479,0.205792956,1.69647287556325e-71,3.74637760020218e-71
"BPXRAVG",0.298241775,0.268193557,5.13724835991478e-53,1.04720831952109e-52
"BPXRABM",0.509689219,0.457001212,1.06322913221733e-219,4.33470338519372e-219
"BPXRBMA",0.510142557,0.464039068,1.20955010039519e-178,3.56145307338585e-178
"BPXRMAX",0.124627109,0.126578127,0.118186623556072,0.136171544531995
"BPNAVG",0.278984825,0.285736881,2.39593978617585e-215,7.93655054170751e-215
"BPNABM",0.425635049,0.429738157,7.60159053432955e-275,1.00721074579867e-273
"BPNBMA",0.43734241,0.440763901,3.30912669574682e-234,1.75383714874582e-233
"BPNMAX",0.12368515,0.124126917,7.26305569260243e-07,1.06928319918869e-06
"BPXNAVG",0.276983317,0.283823388,9.95757246283375e-165,2.63875670265094e-164
"BPXNABM",0.467348834,0.471003598,2.36529618756104e-231,1.13964270855214e-230
"BPXNBMA",0.472139886,0.475183136,7.75440194073519e-202,2.41754884034685e-201
"BPXNMAX",0.119061438,0.119452885,1.31555635484255e-07,2.05072020019573e-07
"BPLAVG",0.275079977,0.282237746,1.84557083334753e-224,8.15127118061826e-224
"BPLABM",0.395323865,0.400003536,1.45767227319162e-262,1.28761050798593e-261
"BPLBMA",0.411351512,0.415267291,1.06237669954866e-218,4.02185464829136e-218
"BPLMAX",0.119363679,0.119861526,1.8615129798973e-06,2.66649156579883e-06
"BPXLAVG",0.274636712,0.282185818,1.46867724323876e-176,4.09683652061339e-176
"BPXLABM",0.451255283,0.455594695,4.27126075851689e-236,2.82971025251744e-235
"BPXLBMA",0.458999294,0.475183136,NA,NA
"BPXLMAX",0.119638879,0.119940862,0.000585216887037268,0.000756499878365249
"BPSAVG",0.277499943,0.281991264,9.86822555847065e-123,2.49055216475688e-122
"BPSABM",0.3942864,0.39941332,1.00966379106076e-291,1.78373936420734e-290
"BPSBMA",0.410168352,0.414698561,1.51416390394594e-217,5.35004579394234e-217
"BPSMAX",0.119592702,0.11983231,0.043235009555466,0.0509212334764377
"BPZGIC",0.466478146,0.466976637,3.82842998346729e-32,7.24667104013451e-32
"BPZDIC",0.460563818,0.46157446,4.8527491542466e-91,1.16907138715941e-90
"BPZUIC",0.453781465,0.433203812,9.09549511754959e-16,1.50644137884415e-15
"BPWGIC",0.458832641,0.458951682,0.0150832723769161,0.0190336532375369
"BPWDIC",0.448988977,0.449474018,5.21972649032417e-17,8.92404851571552e-17
"BPWUIC",0.442735789,0.420714226,1.33207796547805e-17,2.35333773901122e-17
"BPUGIC",0.457609352,0.458472133,0.0340948682733809,0.041068818602027
"BPUDIC",0.458075739,0.457867434,0.360936722227164,0.382592925560794
"BPUUIC",0.453170229,0.449047349,0.0249047207799535,0.0306965163101753
"BPUI",0.452817941,0.452817941,NA,NA
